[gd_scene load_steps=2 format=3 uid="uid://cmo0w8x6y5gpv"]

[ext_resource type="Script" path="res://Scripts/Map/MainMapGenerator.gd" id="1"]

[node name="MainMap" type="Node2D"]
script = ExtResource("1")

[node name="ActiveCamera" type="Camera2D" parent="."]
position_smoothing_enabled = true

[node name="LayerToNotMoveItems" type="CanvasLayer" parent="."]
