[gd_scene load_steps=4 format=3 uid="uid://cmtfsv5akics7"]

[ext_resource type="Script" path="res://Scripts/Common/ConfirmContinue.gd" id="1_mfv23"]
[ext_resource type="FontFile" path="res://Fonts/Roboto20.tres" id="2_h6pw7"]
[ext_resource type="FontFile" uid="uid://c2i6t6gu5quqf" path="res://Fonts/Roboto16.tres" id="3_biaco"]

[node name="ConfirmContinue" type="VBoxContainer"]
offset_right = 281.0
offset_bottom = 53.0
size_flags_horizontal = 2
script = ExtResource("1_mfv23")

[node name="LineEdit" type="Label" parent="."]
layout_mode = 2
theme_override_colors/font_color = Color(0, 0, 0, 1)
theme_override_fonts/font = ExtResource("2_h6pw7")
text = "Сохранить и выйти в главное меню?"
autowrap_mode = 2

[node name="Apply" type="Button" parent="."]
layout_mode = 2
size_flags_horizontal = 4
size_flags_vertical = 4
theme_override_fonts/font = ExtResource("3_biaco")
text = "Подтвердить"

[connection signal="pressed" from="Apply" to="." method="_on_apply_pressed"]
