[gd_scene load_steps=4 format=3 uid="uid://dnpvs6atcaw4h"]

[ext_resource type="Script" path="res://Scripts/Common/ConfirmExit.gd" id="1_p1xud"]
[ext_resource type="FontFile" path="res://Fonts/Roboto20.tres" id="1_q1eqv"]
[ext_resource type="FontFile" uid="uid://c2i6t6gu5quqf" path="res://Fonts/Roboto16.tres" id="2_cprs1"]

[node name="ConfirmExit" type="VBoxContainer"]
offset_right = 446.0
offset_bottom = 75.0
size_flags_horizontal = 2
script = ExtResource("1_p1xud")

[node name="LineEdit" type="Label" parent="."]
layout_mode = 2
theme_override_colors/font_color = Color(0, 0, 0, 1)
theme_override_fonts/font = ExtResource("1_q1eqv")
text = "Выйти в главное меню? Все несохранённые данные будут удалены"
autowrap_mode = 2

[node name="Apply" type="Button" parent="."]
layout_mode = 2
size_flags_horizontal = 4
size_flags_vertical = 4
theme_override_fonts/font = ExtResource("2_cprs1")
text = "Подтвердить"

[connection signal="pressed" from="Apply" to="." method="_on_apply_pressed"]
